[
    {
        "src": "https://images.unsplash.com/photo-1476514525535-07fb3b4ae5f1?ixlib=rb-1.2.1&ixid=eyJhcHBfaWQiOjEyMDd9&auto=format&fit=crop&w=1950&q=80",
        "alt": "boat"
    },
    {
        "src": "https://images.unsplash.com/photo-1522277245807-5e608aa8adcd?ixlib=rb-1.2.1&ixid=eyJhcHBfaWQiOjEyMDd9&auto=format&fit=crop&w=1950&q=80",
        "alt": "blue parrot"
    },
    {
        "src": "https://images.unsplash.com/photo-1419064642531-e575728395f2?ixlib=rb-1.2.1&ixid=eyJhcHBfaWQiOjEyMDd9&auto=format&fit=crop&w=1950&q=80",
        "alt": "mountain panorama"
    },
    {
        "src": "https://images.unsplash.com/uploads/14126758789351371c7ec/aa322c2d?ixlib=rb-1.2.1&ixid=eyJhcHBfaWQiOjEyMDd9&auto=format&fit=crop&w=1950&q=80",
        "alt": "sea view"
    },
    {
        "src": "https://images.unsplash.com/photo-1495620093313-9b049219e095?ixlib=rb-1.2.1&ixid=eyJhcHBfaWQiOjEyMDd9&auto=format&fit=crop&w=1950&q=80",
        "alt": "field"
    },
    {
        "src": "https://images.unsplash.com/reserve/unsplash_5247177ff41f4_1.JPG?ixlib=rb-1.2.1&ixid=eyJhcHBfaWQiOjEyMDd9&auto=format&fit=crop&w=1950&q=80",
        "alt": "butterfly"
    },
    {
        "src": "https://images.unsplash.com/photo-1475319122043-5ca9eeceefaf?ixlib=rb-1.2.1&ixid=eyJhcHBfaWQiOjEyMDd9&auto=format&fit=crop&w=1950&q=80",
        "alt": "beam of light"
    },
    {
        "src": "https://images.unsplash.com/photo-1502082553048-f009c37129b9?ixlib=rb-1.2.1&ixid=eyJhcHBfaWQiOjEyMDd9&auto=format&fit=crop&w=1950&q=80",
        "alt": "big tree"
    },
    {
        "src": "https://images.unsplash.com/photo-1442850473887-0fb77cd0b337?ixlib=rb-1.2.1&ixid=eyJhcHBfaWQiOjEyMDd9&auto=format&fit=crop&w=1950&q=80",
        "alt": "jungle waterfall"
    },
    {
        "src": "https://images.unsplash.com/photo-1431411207774-da3c7311b5e8?ixlib=rb-1.2.1&ixid=eyJhcHBfaWQiOjEyMDd9&auto=format&fit=crop&w=1950&q=80",
        "alt": "coastal"
    },
    {
        "src": "https://images.unsplash.com/photo-1431057259500-78dd318a0a75?ixlib=rb-1.2.1&ixid=eyJhcHBfaWQiOjEyMDd9&auto=format&fit=crop&w=1950&q=80",
        "alt": "canyon waterfall"
    },
    {
        "src": "https://images.unsplash.com/photo-1418226428068-a258dd67f5a5?ixlib=rb-1.2.1&auto=format&fit=crop&w=1950&q=80",
        "alt": "cliff"
    },
    {
        "src": "https://images.unsplash.com/photo-1464553186862-680edae5b2bc?ixlib=rb-1.2.1&auto=format&fit=crop&w=1950&q=80",
        "alt": "canyon"
    },
    {
        "src": "https://images.unsplash.com/photo-1420802498636-9d647b43d2eb?ixlib=rb-1.2.1&ixid=eyJhcHBfaWQiOjEyMDd9&auto=format&fit=crop&w=1950&q=80",
        "alt": "forest path"
    }
]